{
  "type": "text",
  "name": "adv_M&S",
  "lines": [
    {
      "vspace": 1
    },
    {
      "text": ["**************************"],
      "align": "C"
    },
    {
      "text": ["*** Join Sparks ***"],
      "align": "C"
    },
    {
      "text": ["**************************"],
      "align": "C"
    },
    {
      "text": ["You could have earned 150 Sparks today"],
      "align": "C"
    },
    {
      "text": ["Join Sparks in M&S App"],
      "align": "C"
    },
    {
      "text": ["Or at marksandspencer.com/sparks"],
      "align": "C"
    }
  ]
}
