{
  "type": "text",
  "align": "c",
  "padding": [20,0,20,0],
  "text": "{{ seller['name'].capitalize() }}\n{{ address['number'] }} {{ address['street'] }}\n{{ address['town'] }} {{ address['postcode'] }}\nTEL: {{ seller['phone'] }}\nVat no: {{ seller['vat'] }}\nRegistered in England {{ seller['company_no'] }}"
},
{
  "type": "text",
  "align": "c",
  "padding": [0,0,0,0],
  "text": "{{ seller['branch'].upper() }}"
},
{
  "type": "text",
  "align": "l",
  "padding": [0,10,0,10],
  "text": "-------------------------------------------------"
},
{
  "type": "table",
  "col_align": ["l", "l"],
  "padding": [0,10,0,10],
  "widths": [220,150],
  "table": [
    {
      "type": "text",
      "text": "STORE: {{ seller['store'] }}"
    },
    {
      "type": "text",
      "text": "REGISTER: 001"
    },
    {
      "type": "text",
      "text": "CASHIER: {{ seller['cashier'] }}"
    },
    null
  ]
},
{
  "type": "text",
  "align": "l",
  "padding": [0,10,0,10],
  "text": "-------------------------------------------------"
},
{
  "type": "text",
  "align": "l",
  "padding": [0,10,0,10],
  "text": "Customer receipt copy\nSALE"
}



