{% if logo_image is defined %}
{
  "type": "image",
  "width": 200,
  "align": "c",
  "padding": [50,0,50,0],
  "image": "{{ logo_image }}"
},
{% endif %}
{
  "type": "text",
  "align": "c",
  "padding": [20,0,20,0],
  "text": "{% include template_address %}"
}


