{
  "type": "text",
  "name": "header_M&S",
  "lines": [
    {
      "vspace": 1
    },
    {
      "text": ["POS_name"],
      "align": "C",
      "font_size": 40
    },
    {
      "text": ["POS_address", ", ", "POS_city", ", ", "POS_postcode"],
      "align": "C"
    },
    {
      "text": ["Phone: ", "POS_phone"],
      "align": "C"
    },
    {
      "vspace": 1
    }
  ]
}