{
  "type": "text",
  "align": "c",
  "padding": [20,0,0,0],
  "text": "*****************************************************"
},
{
  "type": "text",
  "align": "c",
  "text": "*** Join Sparks ***"
},
{
  "type": "text",
  "align": "c",
  "text": "*****************************************************"
},
{
  "type": "text",
  "align": "c",
  "text": "You could have earned {{ (items.sum('amount') * 10) | int }} Sparks today\nJoin Sparks in M&S App\nOr at marksandspencer.com/sparks"
},
{
  "type": "text",
  "align": "c",
  "padding": [20,0,0,0],
  "text": "Please retain for your records"
},
{
  "type": "text",
  "align": "c",
  "padding": [20,0,0,0],
  "text": "Terms and conditions apply, see\n@marksandspencer.com"
}
